<svg xmlns="http://www.w3.org/2000/svg" xmlns:xlink="http://www.w3.org/1999/xlink" viewBox="0 0 552.07 552.06">
  <defs>
    <style>.cls-1{fill:url(#gradient_1);}</style>
    <linearGradient id="gradient_1" x1="64.58" y1="98.6" x2="487.5" y2="453.47" gradientUnits="userSpaceOnUse">
      <stop offset="0" stop-color="#48D3AA" />
      <stop offset="1" stop-color="#5F4AE3" />
    </linearGradient>
  </defs>
  <g>
    <path class="cls-1" d="M276,0C123.59,0,0,123.59,0,276s123.59,276,276,276,276-123.59,276-276S428.49,0,276,0Zm0,423a29.48,29.48,0,1,1,29.48-29.48A29.5,29.5,0,0,1,276,423Zm74.11,0-33.68-86.76-41.88-107.4-41,107.4L200.76,423H182.05v0h-32.4l17.78-44.22,108-270.82L397.62,412.14l4.8,10.81Z" />
  </g>
</svg>
