<svg xmlns="http://www.w3.org/2000/svg" viewBox="0 0 526.77 493.8">
  <defs>
    <style>.cls-1{fill:#fff;}</style>
  </defs>
  <g>
    <path class="cls-1" d="M202.63,462.34a22,22,0,1,1-22-22A22,22,0,0,1,202.63,462.34Z" />
    <polygon class="cls-1" points="394.79 258.45 394.79 396.88 271.56 249 271.56 476.26 180.29 249 99.59 451.34 37.13 451.34 70.17 484.37 110.51 484.37 110.51 484.35 124.48 484.35 148.99 419.54 179.64 339.31 210.93 419.54 236.1 484.35 271.56 484.35 274.81 484.35 306.72 484.35 306.72 346.22 429.95 493.8 429.95 258.45 394.79 258.45" />
    <polygon class="cls-1" points="36.96 258.48 1.15 258.48 1.15 415.37 36.96 451.17 36.96 258.48" />
    <polygon class="cls-1" points="37.13 451.34 36.96 451.17 36.96 451.34 37.13 451.34" />
    <path class="cls-1" d="M493.48,472.16v14.51h18.31v6.38H471.47v-6.38h16.12V472.16H471.47v-6.39h40.32v6.39Z" />
    <path class="cls-1" d="M512.62,436.68c0,11.87-9.1,21.31-21,21.31s-21-9.44-21-21.31a21,21,0,1,1,42,0Zm-5.89,0a15.1,15.1,0,1,0-15.1,14.91A14.71,14.71,0,0,0,506.73,436.68Z" />
    <path class="cls-1" d="M501.12,407.89s5.72-3.52,5.72-10.19c0-4.15-2.08-6.85-5.72-6.85-9.61,0-5.74,19.74-19.77,19.74-5.67,0-10.72-4.6-10.72-11.86a17.12,17.12,0,0,1,5.78-13l4.21,4.5s-4.09,3.46-4.09,8.34c0,3.35,1.79,5.65,4.71,5.65,8.31,0,5.28-19.74,19.77-19.74,6.84,0,11.61,5.16,11.61,13.06,0,10.65-7.24,15.2-7.24,15.2Z" />
    <path class="cls-1" d="M471.47,381.92V358.13h5.89v8.71h34.43v6.39H477.36v8.69Z" />
    <path class="cls-1" d="M471.47,352.38V346h40.32v6.39Z" />
    <path class="cls-1" d="M513.47,308.51l-26.33,22h24.65v6.29h-42l26.39-22h-24.7v-6.27Z" />
    <path class="cls-1" d="M480,269.76a15.65,15.65,0,0,0-3.42,9.84c0,8.57,6.39,14.74,15.21,14.74,8.37,0,15-6.11,15-14.92,0-7.88-4.89-12.78-11.63-14v14.34h-5.72V258.82s1.13-.13,2.25-.13c11.89,0,21,8.29,21,20.85,0,12-9.1,21.19-20.88,21.19a20.75,20.75,0,0,1-21.11-21.19,21.14,21.14,0,0,1,4.43-13.36Z" />
    <polygon class="cls-1" points="490.32 9.44 440.32 101.94 391.33 9.52 391.34 9.51 391.32 9.51 391.29 9.44 354.19 9.44 354.2 9.45 348.21 9.44 298.4 89.96 279 119.52 278.93 119.44 278.93 123.78 279 123.66 298.92 155.9 351.56 235.16 394.85 235.35 320 122.51 371.32 41.19 422.58 136.24 422.58 235.35 458.38 235.35 458.38 134.98 526.77 9.44 490.32 9.44" />
    <path class="cls-1" d="M296.91,90.83,242.75,9.44l-11,0v0H122.41V146.9L0,0V235.36H35.16V97.23l87.25,104.48,28.1,33.65h98.82l48.21-78,20.8-33.61v-4.34ZM227.3,202.31H158.38v-67h68.54v-33H158.38V42.48h62.8l54.61,82.18Z" />
  </g>
</svg>
