<svg xmlns="http://www.w3.org/2000/svg" viewBox="0 0 703.79 284.28">
  <defs>
    <style>.cls-1{fill:#fff;}</style>
  </defs>
  <g>
    <path class="cls-1" d="M529.8,260.19A16.86,16.86,0,1,1,513,243.34,16.85,16.85,0,0,1,529.8,260.19Z" />
    <polygon class="cls-1" points="676.88 104.14 676.88 210.1 582.56 96.91 582.56 270.86 512.7 96.91 450.93 251.78 403.13 251.78 428.42 277.07 459.29 277.07 459.29 277.05 469.99 277.05 488.75 227.44 512.21 166.03 536.16 227.44 555.42 277.05 582.56 277.05 585.05 277.05 609.48 277.05 609.48 171.33 703.79 284.28 703.79 104.14 676.88 104.14" />
    <polygon class="cls-1" points="403 104.15 375.59 104.15 375.59 224.25 403 251.65 403 104.15" />
    <polygon class="cls-1" points="403.13 251.78 403 251.65 403 251.78 403.13 251.78" />
    <path class="cls-1" d="M96,253.5H80.31v19.74h-6.9v-43.5h6.9v17.39H96V229.74h6.89v43.5H96Z" />
    <path class="cls-1" d="M134.23,274.15c-12.79,0-23-9.81-23-22.66s10.19-22.65,23-22.65,23,9.81,23,22.65S147,274.15,134.23,274.15Zm0-6.36c9.32,0,16.09-7.21,16.09-16.3s-6.77-16.3-16.09-16.3-16.08,7.22-16.08,16.3S124.91,267.79,134.23,267.79Z" />
    <path class="cls-1" d="M165.3,261.74s3.79,6.17,11,6.17c4.47,0,7.38-2.24,7.38-6.17,0-10.37-21.3-6.19-21.3-21.34,0-6.11,5-11.56,12.8-11.56a18.46,18.46,0,0,1,14,6.24l-4.85,4.54s-3.74-4.43-9-4.43c-3.6,0-6.08,1.95-6.08,5.1,0,9,21.3,5.69,21.3,21.32,0,7.39-5.59,12.54-14.1,12.54-11.49,0-16.4-7.82-16.4-7.82Z" />
    <path class="cls-1" d="M193.32,229.74H219v6.36h-9.38v37.14H202.7V236.1h-9.38Z" />
    <path class="cls-1" d="M225.19,229.74h6.89v43.5h-6.89Z" />
    <path class="cls-1" d="M272.52,275.05l-23.72-28.4v26.59H242V227.93l23.72,28.47V229.74h6.77Z" />
    <path class="cls-1" d="M314.32,238.89a16.86,16.86,0,0,0-10.61-3.7c-9.25,0-15.9,6.91-15.9,16.42,0,9,6.58,16.18,16.08,16.18,8.51,0,13.78-5.28,15.09-12.54H303.52v-6.18h22.6s.13,1.21.13,2.42c0,12.85-8.95,22.66-22.48,22.66-13,0-22.85-9.81-22.85-22.54a22.38,22.38,0,0,1,22.85-22.77,22.76,22.76,0,0,1,14.4,4.78Z" />
    <polygon class="cls-1" points="375.3 7.23 337.02 78.03 299.53 7.29 299.54 7.27 299.53 7.27 299.5 7.23 271.1 7.23 271.11 7.23 266.52 7.23 228.4 68.85 213.55 91.49 213.49 91.42 213.49 94.74 213.55 94.65 228.8 119.33 269.08 180 302.23 180.15 244.93 93.77 284.21 31.52 323.45 104.28 323.45 180.15 350.84 180.15 350.84 103.32 403.19 7.23 375.3 7.23" />
    <path class="cls-1" d="M227.27,69.52,185.81,7.23H93.7V112.45L0,0V180.15H26.91V74.42l66.79,80,21.5,25.76h75.64l36.9-59.69,15.92-25.72V91.42ZM174,154.86H121.23v-51.3h52.46V78.27H121.23V32.51h48.06L211.1,95.42Z" />
  </g>
</svg>
